%YAML 1.1
%TAG !u! tag:unity3d.com,2011:
--- !u!1 &150328
GameObject:
  m_ObjectHideFlags: 0
  m_PrefabParentObject: {fileID: 0}
  m_PrefabInternal: {fileID: 100100000}
  serializedVersion: 4
  m_Component:
  - 4: {fileID: 472356}
  - 114: {fileID: 11486708}
  m_Layer: 0
  m_Name: SalmonCucuRoll
  m_TagString: Untagged
  m_Icon: {fileID: 0}
  m_NavMeshLayer: 0
  m_StaticEditorFlags: 0
  m_IsActive: 1
--- !u!4 &472356
Transform:
  m_ObjectHideFlags: 1
  m_PrefabParentObject: {fileID: 0}
  m_PrefabInternal: {fileID: 100100000}
  m_GameObject: {fileID: 150328}
  m_LocalRotation: {x: 0, y: 0, z: 0, w: 1}
  m_LocalPosition: {x: 0, y: 0, z: 0}
  m_LocalScale: {x: 1, y: 1, z: 1}
  m_Children: []
  m_Father: {fileID: 0}
  m_RootOrder: 0
--- !u!114 &11486708
MonoBehaviour:
  m_ObjectHideFlags: 1
  m_PrefabParentObject: {fileID: 0}
  m_PrefabInternal: {fileID: 100100000}
  m_GameObject: {fileID: 150328}
  m_Enabled: 1
  m_EditorHideFlags: 0
  m_Script: {fileID: 11500000, guid: ed6b8d35306724b4d862dff93efcfb05, type: 3}
  m_Name: 
  m_EditorClassIdentifier: 
  ExampleSprite: {fileID: 21300016, guid: 8c6c4d4b8d527d340afffc3b55a1d67a, type: 3}
  FailedSprite: {fileID: 21300016, guid: 0789d95e71771aa42af3fd3800660f73, type: 3}
  Sequence:
  - {fileID: 11456372, guid: 46bddcc237d2fa448a331607aadf28c7, type: 2}
  - {fileID: 11453306, guid: 6fe616aa7eca6de46a0392e8aa75b4ea, type: 2}
  - {fileID: 11428648, guid: 48a649d07aef02f42a19440fe2fff57e, type: 2}
  - {fileID: 11418976, guid: f37c096868a0dab409f0a86ab0cb5ccb, type: 2}
  Value: 10
--- !u!1001 &100100000
Prefab:
  m_ObjectHideFlags: 1
  serializedVersion: 2
  m_Modification:
    m_TransformParent: {fileID: 0}
    m_Modifications:
    - target: {fileID: 0}
      propertyPath: Sequence.Array.data[2]
      value: 
      objectReference: {fileID: 11428648, guid: 48a649d07aef02f42a19440fe2fff57e,
        type: 2}
    - target: {fileID: 0}
      propertyPath: Sequence.Array.data[3]
      value: 
      objectReference: {fileID: 11418976, guid: f37c096868a0dab409f0a86ab0cb5ccb,
        type: 2}
    - target: {fileID: 0}
      propertyPath: Sequence.Array.data[0]
      value: 
      objectReference: {fileID: 11456372, guid: 46bddcc237d2fa448a331607aadf28c7,
        type: 2}
    - target: {fileID: 0}
      propertyPath: Sequence.Array.data[1]
      value: 
      objectReference: {fileID: 11453306, guid: 6fe616aa7eca6de46a0392e8aa75b4ea,
        type: 2}
    - target: {fileID: 0}
      propertyPath: ExampleSprite
      value: 
      objectReference: {fileID: 21300016, guid: 8c6c4d4b8d527d340afffc3b55a1d67a,
        type: 3}
    - target: {fileID: 0}
      propertyPath: FailedSprite
      value: 
      objectReference: {fileID: 21300016, guid: 0789d95e71771aa42af3fd3800660f73,
        type: 3}
    m_RemovedComponents: []
  m_ParentPrefab: {fileID: 0}
  m_RootGameObject: {fileID: 150328}
  m_IsPrefabParent: 1
