%YAML 1.1
%TAG !u! tag:unity3d.com,2011:
--- !u!1 &111044
GameObject:
  m_ObjectHideFlags: 0
  m_PrefabParentObject: {fileID: 0}
  m_PrefabInternal: {fileID: 100100000}
  serializedVersion: 4
  m_Component:
  - 4: {fileID: 443522}
  - 114: {fileID: 11462968}
  m_Layer: 0
  m_Name: ZombieMermaidNewtRoll
  m_TagString: Untagged
  m_Icon: {fileID: 0}
  m_NavMeshLayer: 0
  m_StaticEditorFlags: 0
  m_IsActive: 1
--- !u!4 &443522
Transform:
  m_ObjectHideFlags: 1
  m_PrefabParentObject: {fileID: 0}
  m_PrefabInternal: {fileID: 100100000}
  m_GameObject: {fileID: 111044}
  m_LocalRotation: {x: 0, y: 0, z: 0, w: 1}
  m_LocalPosition: {x: 0, y: -1.1963954, z: 1.55}
  m_LocalScale: {x: 1, y: 1, z: 1}
  m_Children: []
  m_Father: {fileID: 0}
  m_RootOrder: 0
--- !u!114 &11462968
MonoBehaviour:
  m_ObjectHideFlags: 1
  m_PrefabParentObject: {fileID: 0}
  m_PrefabInternal: {fileID: 100100000}
  m_GameObject: {fileID: 111044}
  m_Enabled: 1
  m_EditorHideFlags: 0
  m_Script: {fileID: 11500000, guid: ed6b8d35306724b4d862dff93efcfb05, type: 3}
  m_Name: 
  m_EditorClassIdentifier: 
  ExampleSprite: {fileID: 21300018, guid: 8c6c4d4b8d527d340afffc3b55a1d67a, type: 3}
  FailedSprite: {fileID: 21300018, guid: 0789d95e71771aa42af3fd3800660f73, type: 3}
  Sequence:
  - {fileID: 11456372, guid: 46bddcc237d2fa448a331607aadf28c7, type: 2}
  - {fileID: 11423362, guid: 19c9adbd0fed93b49a588e8172981aeb, type: 2}
  - {fileID: 11473854, guid: dae78d4addbe5214493a11bed707be2d, type: 2}
  - {fileID: 11446422, guid: 0b58397d65a99c24480e7ec4cfa39ca1, type: 2}
  - {fileID: 11418976, guid: f37c096868a0dab409f0a86ab0cb5ccb, type: 2}
  Value: 10
--- !u!1001 &100100000
Prefab:
  m_ObjectHideFlags: 1
  serializedVersion: 2
  m_Modification:
    m_TransformParent: {fileID: 0}
    m_Modifications:
    - target: {fileID: 0}
      propertyPath: ExampleSprite
      value: 
      objectReference: {fileID: 21300018, guid: 8c6c4d4b8d527d340afffc3b55a1d67a,
        type: 3}
    - target: {fileID: 0}
      propertyPath: Sequence.Array.data[1]
      value: 
      objectReference: {fileID: 11423362, guid: 19c9adbd0fed93b49a588e8172981aeb,
        type: 2}
    - target: {fileID: 0}
      propertyPath: FailedSprite
      value: 
      objectReference: {fileID: 21300018, guid: 0789d95e71771aa42af3fd3800660f73,
        type: 3}
    m_RemovedComponents: []
  m_ParentPrefab: {fileID: 0}
  m_RootGameObject: {fileID: 111044}
  m_IsPrefabParent: 1
